\relax 
\providecommand\hyper@newdestlabel[2]{}
\@writefile{toc}{\contentsline {chapter}{\numberline {A}Sentimentele dominante (1500 - 2008)}{35}{appendix.A}}
\@writefile{lof}{\addvspace {10\p@ }}
\@writefile{lot}{\addvspace {10\p@ }}
\@writefile{loa}{\addvspace {10\p@ }}
\gdef \LT@iii {\LT@entry 
    {1}{37.66364pt}\LT@entry 
    {1}{36.4pt}\LT@entry 
    {1}{64.09534pt}\LT@entry 
    {1}{76.80298pt}\LT@entry 
    {1}{12.4pt}\LT@entry 
    {1}{37.26364pt}\LT@entry 
    {1}{36.4pt}\LT@entry 
    {1}{64.09534pt}\LT@entry 
    {1}{76.80298pt}}
\@writefile{lot}{\contentsline {table}{\numberline {A.1}{Sentimentele dominante \IeC {{\textcommabelow s}}i frecven\IeC {{\textcommabelow t}}ele lor pentru intervalul 1500 - 2008}}{37}{table.A.1}}
\@setckpt{appendix1}{
\setcounter{page}{38}
\setcounter{equation}{0}
\setcounter{enumi}{0}
\setcounter{enumii}{0}
\setcounter{enumiii}{0}
\setcounter{enumiv}{0}
\setcounter{footnote}{0}
\setcounter{mpfootnote}{0}
\setcounter{part}{0}
\setcounter{chapter}{1}
\setcounter{section}{0}
\setcounter{subsection}{0}
\setcounter{subsubsection}{0}
\setcounter{paragraph}{0}
\setcounter{subparagraph}{0}
\setcounter{figure}{0}
\setcounter{table}{1}
\setcounter{Item}{0}
\setcounter{Hfootnote}{17}
\setcounter{bookmark@seq@number}{36}
\setcounter{LT@tables}{3}
\setcounter{LT@chunks}{5}
\setcounter{AlgoLine}{0}
\setcounter{algocfline}{0}
\setcounter{algocfproc}{0}
\setcounter{algocf}{0}
\setcounter{section@level}{1}
}
