\relax 
\providecommand\hyper@newdestlabel[2]{}
\bibcite{sociolingvism}{1}
\bibcite{clima}{2}
\bibcite{bass}{3}
\bibcite{Economisirea}{4}
\bibcite{economisirea-document}{5}
\bibcite{twitter}{6}
\bibcite{wk:xxx}{7}
\bibcite{wk:xxx}{8}
\bibcite{wk:xxx}{9}
\@writefile{toc}{\contentsline {chapter}{Bibliografie}{39}{appendix*.2}}
\bibcite{wk:xxx}{10}
\bibcite{wk:xxx}{11}
\@setckpt{biblio}{
\setcounter{page}{41}
\setcounter{equation}{0}
\setcounter{enumi}{0}
\setcounter{enumii}{0}
\setcounter{enumiii}{0}
\setcounter{enumiv}{11}
\setcounter{footnote}{0}
\setcounter{mpfootnote}{0}
\setcounter{part}{0}
\setcounter{chapter}{1}
\setcounter{section}{0}
\setcounter{subsection}{0}
\setcounter{subsubsection}{0}
\setcounter{paragraph}{0}
\setcounter{subparagraph}{0}
\setcounter{figure}{0}
\setcounter{table}{1}
\setcounter{Item}{0}
\setcounter{Hfootnote}{17}
\setcounter{bookmark@seq@number}{38}
\setcounter{LT@tables}{3}
\setcounter{LT@chunks}{5}
\setcounter{AlgoLine}{0}
\setcounter{algocfline}{0}
\setcounter{algocfproc}{0}
\setcounter{algocf}{0}
\setcounter{section@level}{1}
}
