\relax 
\providecommand\hyper@newdestlabel[2]{}
\@writefile{toc}{\contentsline {chapter}{\numberline {5}Rezultate finale \IeC {{\textcommabelow s}}i concluzii}{28}{chapter.5}}
\@writefile{lof}{\addvspace {10\p@ }}
\@writefile{lot}{\addvspace {10\p@ }}
\@writefile{loa}{\addvspace {10\p@ }}
\@writefile{toc}{\contentsline {section}{\numberline {5.1}Determinarea perioadelor \IeC {\^\i }n care o clas\IeC {\u a} de sentimente a fost dominant\IeC {\u a}}{28}{section.5.1}}
\gdef \LT@i {\LT@entry 
    {1}{66.61952pt}\LT@entry 
    {1}{238.38382pt}\LT@entry 
    {1}{180.38786pt}}
\@writefile{lot}{\contentsline {table}{\numberline {5.1}{Sentimentele \IeC {{\textcommabelow s}}i perioadele dominante}}{29}{table.5.1}}
\gdef \LT@ii {\LT@entry 
    {1}{68.31128pt}\LT@entry 
    {1}{139.29848pt}\LT@entry 
    {1}{147.6027pt}}
\@writefile{toc}{\contentsline {section}{\numberline {5.2}Determinarea sentimentelor dominante pentru perioada 1500 - 2008}{30}{section.5.2}}
\@writefile{lot}{\contentsline {table}{\numberline {5.2}{Sentimentele \IeC {{\textcommabelow s}}i media frecven\IeC {{\textcommabelow t}}ei de folosire pe intervalul 1500-2008}}{31}{table.5.2}}
\newlabel{frecvente}{{5.2}{31}{Determinarea sentimentelor dominante pentru perioada 1500 - 2008}{table.5.2}{}}
\@writefile{lof}{\contentsline {figure}{\numberline {5.1}{\ignorespaces Frecven\IeC {{\textcommabelow t}}a de apari\IeC {{\textcommabelow t}}ie a fiec\IeC {\u a}rei clase de sentimente pentru corpusul britanic \IeC {\^\i }n perioada de timp studiat\IeC {\u a}.}}{31}{figure.5.1}}
\newlabel{fig:british}{{5.1}{31}{Frecvența de apariție a fiecărei clase de sentimente pentru corpusul britanic în perioada de timp studiată}{figure.5.1}{}}
\@writefile{lof}{\contentsline {figure}{\numberline {5.2}{\ignorespaces Frecven\IeC {{\textcommabelow t}}a de apari\IeC {{\textcommabelow t}}ie a fiec\IeC {\u a}rei clase de sentimente pentru corpusul american \IeC {\^\i }n perioada de timp studiat\IeC {\u a}.}}{32}{figure.5.2}}
\newlabel{fig:american}{{5.2}{32}{Frecvența de apariție a fiecărei clase de sentimente pentru corpusul american în perioada de timp studiată}{figure.5.2}{}}
\@writefile{toc}{\contentsline {section}{\numberline {5.3}Perioadele \IeC {\^\i }n care au ap\IeC {\u a}rut sentimentele}{32}{section.5.3}}
\@writefile{lot}{\contentsline {table}{\numberline {5.3}{\ignorespaces Anii apari\IeC {{\textcommabelow t}}iei sentimentelor pentru corpusul britanic}}{32}{table.5.3}}
\newlabel{aparitie_british}{{5.3}{32}{Anii apariției sentimentelor pentru corpusul britanic}{table.5.3}{}}
\@writefile{toc}{\contentsline {section}{\numberline {5.4}Corpusul britanic vs corpusul american}{33}{section.5.4}}
\@writefile{toc}{\contentsline {section}{\numberline {5.5}Studii viitoare}{33}{section.5.5}}
\@writefile{lof}{\contentsline {figure}{\numberline {5.3}{\ignorespaces Asem\IeC {\u a}n\IeC {\u a}ri \IeC {\^\i }n cre\IeC {{\textcommabelow s}}terea frecven\IeC {{\textcommabelow t}}ei de folosire a cuvintelor din aceea\IeC {{\textcommabelow s}}i clas\IeC {\u a} de sentimente.}}{34}{figure.5.3}}
\newlabel{fig:future_work}{{5.3}{34}{Asemănări în creșterea frecvenței de folosire a cuvintelor din aceeași clasă de sentimente}{figure.5.3}{}}
\@writefile{toc}{\contentsline {section}{\numberline {5.6}Concluzii}{34}{section.5.6}}
\@setckpt{chapter5}{
\setcounter{page}{35}
\setcounter{equation}{0}
\setcounter{enumi}{0}
\setcounter{enumii}{0}
\setcounter{enumiii}{0}
\setcounter{enumiv}{0}
\setcounter{footnote}{0}
\setcounter{mpfootnote}{0}
\setcounter{part}{0}
\setcounter{chapter}{5}
\setcounter{section}{6}
\setcounter{subsection}{0}
\setcounter{subsubsection}{0}
\setcounter{paragraph}{0}
\setcounter{subparagraph}{0}
\setcounter{figure}{3}
\setcounter{table}{3}
\setcounter{Item}{0}
\setcounter{Hfootnote}{17}
\setcounter{bookmark@seq@number}{35}
\setcounter{LT@tables}{2}
\setcounter{LT@chunks}{1}
\setcounter{AlgoLine}{0}
\setcounter{algocfline}{0}
\setcounter{algocfproc}{0}
\setcounter{algocf}{0}
\setcounter{section@level}{1}
}
