\relax 
\providecommand\hyper@newdestlabel[2]{}
\@writefile{toc}{\contentsline {chapter}{\numberline {4}Datele \IeC {{\textcommabelow s}}i algoritmii aplica\IeC {{\textcommabelow t}}i}{16}{chapter.4}}
\@writefile{lof}{\addvspace {10\p@ }}
\@writefile{lot}{\addvspace {10\p@ }}
\@writefile{loa}{\addvspace {10\p@ }}
\@writefile{toc}{\contentsline {section}{\numberline {4.1}Setul ini\IeC {{\textcommabelow t}}ial de date}{17}{section.4.1}}
\@writefile{lof}{\contentsline {figure}{\numberline {4.1}{\ignorespaces Structura datelor dup\IeC {\u a} importul frecven\IeC {{\textcommabelow t}}elor}}{17}{figure.4.1}}
\newlabel{fig:Folders}{{4.1}{17}{Structura datelor după importul frecvențelor}{figure.4.1}{}}
\@writefile{toc}{\contentsline {section}{\numberline {4.2}Extragerea frecven\IeC {{\textcommabelow t}}elor din Google Ngrams}{18}{section.4.2}}
\@writefile{toc}{\contentsline {section}{\numberline {4.3}Algoritmi aplica\IeC {{\textcommabelow t}}i}{19}{section.4.3}}
\@writefile{toc}{\contentsline {subsection}{\numberline {4.3.1}Algoritmul de segmentare "k-segmentation"}{19}{subsection.4.3.1}}
\@writefile{toc}{\contentsline {subsection}{\numberline {4.3.2}Descriere algoritm}{19}{subsection.4.3.2}}
\@writefile{lof}{\contentsline {figure}{\numberline {4.2}{\ignorespaces Graficul generat dup\IeC {\u a} aplicarea algoritmului de segmentare pentru cuv\IeC {\^a}ntul "alarmed"}}{21}{figure.4.2}}
\newlabel{fig:Alarmed_figure}{{4.2}{21}{Graficul generat după aplicarea algoritmului de segmentare pentru cuvântul "alarmed"}{figure.4.2}{}}
\@writefile{toc}{\contentsline {subsection}{\numberline {4.3.3}Rezultate algoritm}{21}{subsection.4.3.3}}
\@writefile{toc}{\contentsline {section}{\numberline {4.4}Determinarea perioadelor \IeC {\^\i }n care sentimentele au fost mai intense}{21}{section.4.4}}
\@writefile{lof}{\contentsline {figure}{\numberline {4.3}{\ignorespaces Graficul cu datele reale, a\IeC {{\textcommabelow s}}a cum apare pe Google Ngram Viewer pentru cuv\IeC {\^a}ntul "alarmed"}}{22}{figure.4.3}}
\newlabel{fig:Alarmed_figure_google}{{4.3}{22}{Graficul cu datele reale, așa cum apare pe Google Ngram Viewer pentru cuvântul "alarmed"}{figure.4.3}{}}
\@writefile{lof}{\contentsline {figure}{\numberline {4.4}{\ignorespaces Graficul rezultat \IeC {\^\i }n urma aplic\IeC {\u a}rii filtrului.}}{23}{figure.4.4}}
\newlabel{fig:Alarmed_figure_fts}{{4.4}{23}{Graficul rezultat în urma aplicării filtrului}{figure.4.4}{}}
\@writefile{toc}{\contentsline {section}{\numberline {4.5}Determinarea sentimentelor dominante pentru perioada 1500 - 2008}{23}{section.4.5}}
\@writefile{lof}{\contentsline {figure}{\numberline {4.5}{\ignorespaces Graficul final pentru clasa de sentimente "Afraid"}}{24}{figure.4.5}}
\newlabel{fig:Afraid}{{4.5}{24}{Graficul final pentru clasa de sentimente "Afraid"}{figure.4.5}{}}
\@writefile{toc}{\contentsline {section}{\numberline {4.6}Testarea algoritmului de segmentare}{24}{section.4.6}}
\@writefile{lot}{\contentsline {table}{\numberline {4.1}{\ignorespaces Perioade \IeC {{\textcommabelow s}}i evenimente pentru sentimentul "Afraid" - varianta cu segmentare}}{25}{table.4.1}}
\newlabel{afraid_table_britanic}{{4.1}{25}{Perioade și evenimente pentru sentimentul "Afraid" - varianta cu segmentare}{table.4.1}{}}
\newlabel{afraid_table_2}{{4.6}{25}{Testarea algoritmului de segmentare}{section.4.6}{}}
\@writefile{lot}{\contentsline {table}{\numberline {4.2}{\ignorespaces Perioade \IeC {{\textcommabelow s}}i evenimente pentru sentimentul "Afraid" - varianta f\IeC {\u a}r\IeC {\u a} segmentare}}{25}{table.4.2}}
\@writefile{toc}{\contentsline {section}{\numberline {4.7}Perioadele de apari\IeC {{\textcommabelow t}}ie a sentimentelor}{26}{section.4.7}}
\@writefile{toc}{\contentsline {section}{\numberline {4.8}Compararea rezultatelor ob\IeC {{\textcommabelow t}}inute pentru vocabularul englez cu cele ob\IeC {{\textcommabelow t}}inute pentru vocabularul american}{26}{section.4.8}}
\@writefile{lof}{\contentsline {figure}{\numberline {4.6}{\ignorespaces Compara\IeC {{\textcommabelow t}}ie \IeC {\^\i }ntre cele dou\IeC {\u a} vocabulare dup\IeC {\u a} clasa de sentimente "Afraid"}}{27}{figure.4.6}}
\newlabel{fig:british_american_afraid}{{4.6}{27}{Comparație între cele două vocabulare după clasa de sentimente "Afraid"}{figure.4.6}{}}
\@setckpt{chapter4}{
\setcounter{page}{28}
\setcounter{equation}{0}
\setcounter{enumi}{0}
\setcounter{enumii}{0}
\setcounter{enumiii}{0}
\setcounter{enumiv}{0}
\setcounter{footnote}{6}
\setcounter{mpfootnote}{0}
\setcounter{part}{0}
\setcounter{chapter}{4}
\setcounter{section}{8}
\setcounter{subsection}{0}
\setcounter{subsubsection}{0}
\setcounter{paragraph}{0}
\setcounter{subparagraph}{0}
\setcounter{figure}{6}
\setcounter{table}{2}
\setcounter{Item}{0}
\setcounter{Hfootnote}{17}
\setcounter{bookmark@seq@number}{28}
\setcounter{LT@tables}{0}
\setcounter{LT@chunks}{0}
\setcounter{AlgoLine}{0}
\setcounter{algocfline}{0}
\setcounter{algocfproc}{0}
\setcounter{algocf}{0}
\setcounter{section@level}{1}
}
