\relax 
\providecommand\hyper@newdestlabel[2]{}
\@writefile{toc}{\contentsline {chapter}{\numberline {3}Studiul literaturii din domeniu}{12}{chapter.3}}
\@writefile{lof}{\addvspace {10\p@ }}
\@writefile{lot}{\addvspace {10\p@ }}
\@writefile{loa}{\addvspace {10\p@ }}
\@writefile{toc}{\contentsline {section}{\numberline {3.1}Societatea analizat\IeC {\u a} pe baza schimb\IeC {\u a}rilor climei}{12}{section.3.1}}
\@writefile{toc}{\contentsline {section}{\numberline {3.2}Testarea economisirii societ\IeC {\u a}\IeC {{\textcommabelow t}}ii}{13}{section.3.2}}
\@writefile{toc}{\contentsline {section}{\numberline {3.3}Analiz\IeC {\u a} de sentimente bazat\IeC {\u a} pe colec\IeC {{\textcommabelow t}}ia de date Twitter}{13}{section.3.3}}
\@writefile{toc}{\contentsline {section}{\numberline {3.4}Exprimarea emo\IeC {{\textcommabelow t}}iilor \IeC {\^\i }n secolul al XX-lea}{14}{section.3.4}}
\@setckpt{chapter3}{
\setcounter{page}{16}
\setcounter{equation}{0}
\setcounter{enumi}{0}
\setcounter{enumii}{0}
\setcounter{enumiii}{0}
\setcounter{enumiv}{0}
\setcounter{footnote}{9}
\setcounter{mpfootnote}{0}
\setcounter{part}{0}
\setcounter{chapter}{3}
\setcounter{section}{4}
\setcounter{subsection}{0}
\setcounter{subsubsection}{0}
\setcounter{paragraph}{0}
\setcounter{subparagraph}{0}
\setcounter{figure}{0}
\setcounter{table}{0}
\setcounter{Item}{0}
\setcounter{Hfootnote}{11}
\setcounter{bookmark@seq@number}{16}
\setcounter{LT@tables}{0}
\setcounter{LT@chunks}{0}
\setcounter{AlgoLine}{0}
\setcounter{algocfline}{0}
\setcounter{algocfproc}{0}
\setcounter{algocf}{0}
\setcounter{section@level}{1}
}
