\relax 
\providecommand\hyper@newdestlabel[2]{}
\@writefile{toc}{\contentsline {chapter}{\numberline {2}Google Ngrams}{8}{chapter.2}}
\@writefile{lof}{\addvspace {10\p@ }}
\@writefile{lot}{\addvspace {10\p@ }}
\@writefile{loa}{\addvspace {10\p@ }}
\@writefile{toc}{\contentsline {section}{\numberline {2.1}Scurt istoric}{8}{section.2.1}}
\@writefile{toc}{\contentsline {section}{\numberline {2.2}N-grame}{9}{section.2.2}}
\@writefile{toc}{\contentsline {section}{\numberline {2.3}Google Books Ngram Viewer}{9}{section.2.3}}
\@writefile{toc}{\contentsline {subsection}{\numberline {2.3.1}Interfa\IeC {{\textcommabelow t}}a}{10}{subsection.2.3.1}}
\@writefile{toc}{\contentsline {subsection}{\numberline {2.3.2}Cazuri de utilizare}{10}{subsection.2.3.2}}
\@writefile{toc}{\contentsline {subsection}{\numberline {2.3.3}Controverse \IeC {{\textcommabelow s}}i concluzii}{11}{subsection.2.3.3}}
\@setckpt{chapter2}{
\setcounter{page}{12}
\setcounter{equation}{0}
\setcounter{enumi}{0}
\setcounter{enumii}{0}
\setcounter{enumiii}{0}
\setcounter{enumiv}{0}
\setcounter{footnote}{2}
\setcounter{mpfootnote}{0}
\setcounter{part}{0}
\setcounter{chapter}{2}
\setcounter{section}{3}
\setcounter{subsection}{3}
\setcounter{subsubsection}{0}
\setcounter{paragraph}{0}
\setcounter{subparagraph}{0}
\setcounter{figure}{0}
\setcounter{table}{0}
\setcounter{Item}{0}
\setcounter{Hfootnote}{2}
\setcounter{bookmark@seq@number}{11}
\setcounter{LT@tables}{0}
\setcounter{LT@chunks}{0}
\setcounter{AlgoLine}{0}
\setcounter{algocfline}{0}
\setcounter{algocfproc}{0}
\setcounter{algocf}{0}
\setcounter{section@level}{2}
}
