\relax 
\providecommand\hyper@newdestlabel[2]{}
\providecommand\HyperFirstAtBeginDocument{\AtBeginDocument}
\HyperFirstAtBeginDocument{\ifx\hyper@anchor\@undefined
\global\let\oldcontentsline\contentsline
\gdef\contentsline#1#2#3#4{\oldcontentsline{#1}{#2}{#3}}
\global\let\oldnewlabel\newlabel
\gdef\newlabel#1#2{\newlabelxx{#1}#2}
\gdef\newlabelxx#1#2#3#4#5#6{\oldnewlabel{#1}{{#2}{#3}}}
\AtEndDocument{\ifx\hyper@anchor\@undefined
\let\contentsline\oldcontentsline
\let\newlabel\oldnewlabel
\fi}
\fi}
\global\let\hyper@last\relax 
\gdef\HyperFirstAtBeginDocument#1{#1}
\providecommand\HyField@AuxAddToFields[1]{}
\providecommand\HyField@AuxAddToCoFields[2]{}
\@input{cover.aux}
\select@language{romanian}
\@writefile{toc}{\select@language{romanian}}
\@writefile{lof}{\select@language{romanian}}
\@writefile{lot}{\select@language{romanian}}
\@input{prefata.aux}
\@input{chapter1.aux}
\@input{chapter2.aux}
\@input{chapter3.aux}
\@input{chapter4.aux}
\@input{chapter5.aux}
\@input{appendix1.aux}
\@writefile{toc}{\contentsline {chapter}{Lista de figuri}{38}{table.A.1}}
\@input{biblio.aux}
